module migrations-example

go 1.17

require github.com/golang-migrate/migrate/v4 v4.15.1

require (
	github.com/hashicorp/errwrap v1.0.0 // indirect
	github.com/hashicorp/go-multierror v1.1.0 // indirect
	github.com/lib/pq v1.10.4 // indirect
	go.uber.org/atomic v1.6.0 // indirect
)
